evla,evlo
10.941000 91.794200 
net,stat,lat,lon,gcarc,baz,az
ZE RODE 12.841500 40.982600 49.742366 86.436805 277.622448
X4 D18 32.894200 94.700900 22.026336 187.638890 6.533399
UW OFR 47.933130 -124.396040 113.085216 321.091769 25.425693
X4 B02 32.972700 94.138800 22.047311 186.150614 5.257324
AK MCK 63.731800 -148.937300 92.500480 301.081203 22.771067
CC VALT 46.214220 -122.189250 115.367424 322.764217 25.286892
NM MPH 35.123000 -89.932000 134.021702 357.662470 1.949067
X6 NS11 -27.112500 -67.702600 154.912664 126.550902 226.778366
US NEW 48.264200 -117.122700 115.629107 328.365358 20.869724
ZL PACH -30.192900 -68.828200 153.699381 133.288795 219.886629
ZL MALA -30.818200 -66.607300 151.856344 130.579536 221.670006
UW TAKO 43.743340 -124.082470 116.462896 320.185420 28.154302
CN FRB 63.746900 -68.545100 103.920039 19.847029 351.178699
ZV WENQ 35.423300 99.436300 25.357648 197.774470 14.692019
CI PASC 34.171410 -118.185230 126.793335 322.459003 30.927250
UW LON 46.750600 -121.809600 115.096728 323.286396 24.701075
CI EDW2 34.881100 -117.993880 126.325706 322.974477 30.239876
GT BOSA -28.614100 25.255530 75.357590 68.719469 236.479826
JP YOJ 24.467200 123.011300 32.568385 251.151882 61.370657
KN CHM 42.998600 74.751300 35.228793 150.033474 338.123083
ZL SASO -31.511500 -68.984300 152.876214 135.411031 217.593703
ZV SLTN 36.011700 101.382800 26.444056 201.575486 17.654381
UW WISH 47.116980 -123.771180 113.986625 321.475397 25.621549
AZ SND 33.551900 -116.612900 128.072507 323.847699 30.079189
CI PDM 34.303360 -114.141520 128.623895 326.883802 27.393608
TA J10A 43.427500 -116.767000 119.856816 327.398165 23.523621
US PKME 45.264400 -69.291700 121.390691 21.772961 344.554288
X4 D24 31.161000 96.471500 20.596932 193.172077 11.464570
CI PHL 35.407730 -120.545560 124.618998 320.576012 31.851045
YT SIPL -81.640500 -148.955300 104.833931 242.396915 172.435783
AT PMR 61.592200 -149.130800 93.527023 300.818405 24.655552
X6 NS08 -26.784100 -67.648400 155.067008 125.899651 227.471071
X4 GS18 32.865500 104.784700 24.894523 211.666260 26.711601
AU BBOO -32.809600 136.058300 60.673482 308.085599 137.595596
US DGMT 48.470200 -104.195900 119.057184 342.064715 12.023612
IU POHA 19.757300 -155.532600 107.114314 288.781430 65.196889
IU SJG 18.109100 -66.150000 143.810823 38.223034 323.195575
IU SNZO -41.308700 174.704300 91.927527 282.695861 131.637301
CN ULM 50.250300 -95.875000 118.571541 351.460636 5.559939
TA Z22A 33.255500 -106.963900 132.449552 334.863376 21.229896
NN BEK 39.866600 -120.359600 121.223804 322.536560 28.431028
TW TWGB 22.817700 121.079900 30.367555 252.008604 63.283897
IU KBS 78.915400 11.938500 77.326884 97.797840 348.777955
CI SMM 35.314200 -119.995810 124.975138 321.093295 31.499982
US WUAZ 35.516900 -111.373900 128.771603 330.504047 24.116116
X4 D13 33.012300 97.113200 22.519233 193.765689 11.736271
CI BFS 34.238830 -117.658530 127.004030 323.043563 30.443978
US OGNE 40.945100 -102.033000 126.693597 343.093869 12.945114
NM SLM 38.636100 -90.236400 130.508283 357.396853 2.073231
II PFO 33.610700 -116.455500 128.102432 324.043928 29.901200
TW YHNB 24.669500 121.375700 31.233942 249.358708 60.059006
CI BEL 34.000600 -115.998200 128.008066 324.713559 29.223702
CU BCIP 9.166500 -79.837300 158.278296 22.248862 337.622852
YT LONW -81.346600 152.735000 96.528792 300.182173 172.363554
AF LBB -11.631000 27.485000 67.780311 73.047781 252.605081
LD BRNJ 40.682800 -74.566000 126.985497 16.739219 347.129689
AK NIKH 52.972100 -168.855000 86.899040 284.124340 36.584750
AZ TRO 33.523400 -116.425700 128.187529 324.036319 29.940421
X6 NS13 -27.336000 -67.773600 154.829904 127.043840 226.268864
II HOPE -54.283600 -36.487900 120.613763 116.607295 212.189832
G TAOE -8.854920 -140.147750 128.976358 276.912828 92.540877
ZL PAGA -30.208500 -67.286400 152.697128 130.774831 221.839350
X4 F02 33.833000 97.102400 23.313034 193.286101 11.221981
AU LHI -31.520000 159.061300 77.003031 291.518486 126.063495
AF YNDE 3.870000 11.456000 79.882135 79.590341 272.049721
AF BLWY -20.143000 28.611000 69.477415 69.473447 243.605483
X4 C10 33.257600 91.844300 22.225668 180.130212 0.110999
IU KNTN -2.774400 -171.718600 96.989771 280.649932 91.442382
X4 H02 36.269400 96.956500 25.660141 191.787045 9.666964
CI OSI 34.614500 -118.723500 126.171341 322.095185 31.028354
IC XAN 34.031300 108.923700 27.833917 218.325593 31.595700
US BRAL 31.168700 -87.050600 137.980129 1.678259 358.536331
ZE SEHE 12.040100 40.976900 49.802151 85.763995 276.580536
US JFWS 42.914200 -90.248100 126.239563 357.529462 1.845246
X6 EW13 -26.652300 -67.877300 155.309919 126.032838 227.437665
TA F16A 45.784300 -111.626200 119.620885 333.459925 18.534469
US AHID 42.765400 -111.100400 122.486492 333.224848 19.714054
ZV HON2 34.059600 102.444500 25.005198 205.456740 21.286070
CN LLLB 50.609000 -121.881500 111.956625 324.193454 22.263363
X4 GS12 34.853200 105.749800 27.004353 211.477077 25.903087
KN KBK 42.656400 74.947800 34.860417 150.102380 338.044079
ZV XHAI 35.600300 99.990300 25.667421 198.878862 15.559298
II OBN 55.114600 36.567400 61.564050 113.381302 327.599475
CI PLM 33.353610 -116.862650 128.108124 323.488624 30.440113
ZV GHTN 36.392500 100.830800 26.640190 200.143419 16.417848
AF PKA -29.670000 22.757000 77.774828 69.886180 236.261948
CI RRX 34.875330 -116.996840 126.817948 324.025789 29.427370
IU XMAS 2.044800 -157.445700 110.061377 282.415346 83.692267
US MNTX 31.698500 -105.382100 134.416451 336.249746 20.444213
IU PAB 39.544600 -4.349900 87.817948 77.560476 309.832768
CI RPV 33.743460 -118.404120 127.019466 322.035459 31.431817
ZL GUAR -31.893900 -70.197300 153.307614 138.031959 215.362037
CN SADO 44.769400 -79.141700 123.817594 10.667020 352.296233
CI HEC 34.829400 -116.335000 127.172293 324.713808 28.909338
CI GRA 36.996080 -117.366210 124.924872 324.518624 28.208489
IU PTCN -25.071300 -130.095300 138.046315 257.901017 115.512493
AF MOPA -23.517000 31.398000 68.320132 66.867823 239.225292
NM USIN 37.965000 -87.666000 131.211737 0.699169 359.437939
AF POGA -27.346000 31.707000 69.609784 65.355467 235.362943
ZL LUNA -30.160800 -67.836300 153.086893 131.591664 221.230738
X6 EW11 -26.666200 -67.676200 155.155931 125.738282 227.663056
AK RC01 61.088900 -149.739000 93.531105 300.251288 25.238853
GT DBIC 6.670160 -4.856560 95.327228 78.308948 277.879728
CN RES 74.689200 -94.896200 94.342644 353.421308 1.771002
ZL GUAL -30.830900 -68.948100 153.333356 134.408044 218.700741
TA X26A 34.550800 -103.810300 132.282483 339.248106 17.308428
NM OLIL 38.733800 -88.099100 130.446767 0.136643 359.891307
CI RCT 36.305230 -119.243840 124.578099 322.284125 30.175283
ZL VELA -30.165800 -69.474900 154.122217 134.361835 219.051465
CI CHF 34.333410 -118.025850 126.745214 322.698894 30.674883
TA Y22D 34.073900 -106.921000 131.724521 335.222896 20.725694
JP ASAJ 44.118800 142.593000 54.714169 248.900390 43.093715
X4 D10 34.370700 97.923400 23.999467 194.955906 12.542602
IU HKT 29.961800 -95.838400 138.546596 348.749862 9.919972
IU BBSR 32.371299 -64.696299 131.336393 31.207200 333.506861
ZL TOCO -30.658600 -69.436300 153.753010 135.004352 218.312278
II SHEL -15.958800 -5.745700 100.211116 81.513888 255.619233
CI SNCC 33.247870 -119.524370 126.820595 320.643381 32.727033
ZV AMU 32.916200 102.632800 24.051450 206.974068 22.839906
AK EYAK 60.548700 -145.750000 95.472896 303.777167 24.662150
US HDIL 40.555900 -89.294000 128.617683 358.641986 1.052206
IU JOHN 16.732900 -169.529200 95.122807 283.071062 71.853624
US TPNV 36.948800 -116.249500 125.475213 325.682742 27.348106
PS TSK 36.210800 140.109700 50.300322 252.539569 51.697087
AT SKAG 59.460100 -135.328970 100.239935 313.128008 22.247924
IU FUNA -8.525900 179.196600 89.165422 281.125582 98.780097
US MSO 46.829200 -113.940600 117.951999 331.280366 19.597265
TA MSTX 33.969600 -102.772400 133.123299 340.384115 16.489228
CI GMR 34.784570 -115.659940 127.527042 325.423520 28.371319
TA 109C 32.888900 -117.105100 128.357765 323.012704 30.998130
AF SWZ -27.182000 25.332000 74.780013 69.030004 237.834086
US DUG 40.195000 -112.813300 124.145277 330.571425 22.503880
YT MPAT -78.029700 -155.022100 105.332647 249.361190 168.562475
X6 BB10 -26.379000 -67.690700 155.332682 125.255978 228.202148
AF UPI -28.362000 21.253000 78.579673 70.962480 237.970252
TA R21A 38.368500 -107.550100 127.611783 335.921531 19.037078
AU EIDS -25.369100 151.081700 68.138709 294.424734 123.033999
NM UALR 34.775100 -92.342900 134.230447 354.374660 4.708480
X4 D23 31.542100 95.264500 20.765002 189.662681 8.384376
ZE SEME 11.792600 41.004400 49.793909 85.560766 276.256247
IU TATO 24.973500 121.497100 31.444731 249.009352 59.590088
ZV HUDO 36.618300 100.852500 26.857825 200.035348 16.282347
ZE CHIE 11.597900 40.018800 50.772657 85.264936 276.105648
CI SWS 32.945080 -115.799880 128.962158 324.449261 29.827613
ZL REGU -31.899300 -70.027700 153.206858 137.738793 215.590764
AK CAST 63.418800 -152.084400 91.434080 298.233744 23.738165
CI GLA 33.051490 -114.827060 129.344088 325.567705 28.890119
ZV ARWC 33.770000 101.697900 24.482738 204.079513 20.228135
US LKWY 44.565200 -110.400000 121.096113 334.470350 18.253083
US BINY 42.199300 -75.986100 125.817317 14.756377 348.904018
X4 H06 36.282300 98.119800 25.885383 194.365604 11.766299
AZ MONP2 32.892000 -116.422300 128.698012 323.748429 30.409068
IU SBA -77.849200 166.757200 97.463500 286.882466 168.124986
X6 NS06 -26.616300 -67.440000 155.012644 125.280866 228.051248
AT SMY 52.730800 174.103100 76.715180 270.733507 38.167175
AT AKUT 54.135170 -165.771850 88.363629 286.534340 34.976419
ZV CZHU 32.768900 103.617400 24.312797 209.290215 24.793810
YT DUFK -82.861900 -53.200600 106.670491 143.996643 184.280225
US GOGA 33.411200 -83.466600 135.530146 6.590969 354.394803
CI DVT 32.659150 -116.100610 129.045398 323.987983 30.304278
X4 H04 35.941400 97.491200 25.433960 193.134349 10.811206
US KSU1 39.100900 -96.609400 129.473364 349.363612 8.399025
ZL CIGA -30.144100 -68.573900 153.571576 132.787944 220.304150
ZV MAQU 34.002300 102.046800 24.813562 204.641967 20.633013
MN TRI 45.709000 13.764000 73.911201 90.662859 314.575998
ZV TRYL 35.492500 101.951200 26.140948 203.171984 19.064896
AT OHAK 57.222500 -153.287500 93.781343 296.946865 29.514344
KZ CHKZ 53.676200 70.615200 45.867996 150.342241 342.593712
ZE DIGE 12.327900 40.273400 50.468037 85.895383 277.018032
US HWUT 41.606900 -111.565200 123.357994 332.379497 20.704556
IU WAKE 19.283400 166.652000 72.347588 275.742911 73.093411
AK TNA 65.560100 -167.926400 84.294299 283.936347 24.210100
AT SIT 57.056900 -135.324400 101.882428 312.797450 24.036759
NR NE81 28.918340 -109.636260 135.211058 329.646813 26.795458
NM SIUC 37.714800 -89.217400 131.454881 358.684888 1.060769
TA D12A 47.052800 -115.352500 117.282343 329.871945 20.419769
NA SEUS 17.492800 -62.981400 142.314495 42.759127 318.728433
ZL ZOND -31.603700 -68.721300 152.652826 135.090541 217.800007
TA P13A 39.455000 -114.015600 124.318109 329.015066 23.913543
ZL MAJA -30.686600 -67.508700 152.526812 131.819118 220.787324
LD FRNY 44.835000 -73.588300 122.807175 17.049014 347.755175
TA Y27A 33.883900 -103.163300 133.093162 339.857278 16.944045
ZV LORI 32.489200 102.437400 23.597176 206.973380 22.954580
YT MILR -83.306300 156.251700 97.877984 296.511913 173.882096
AV KABU 58.270200 -155.284300 92.359303 295.281580 29.042903
ZL NOQE -31.199400 -66.747000 151.697819 131.329841 220.898065
YT WILS -80.039600 -80.558700 110.742197 171.974145 181.413865
UW SQM 48.073680 -123.048060 113.534721 322.431726 24.560455
UW MEGW 46.266090 -123.877090 114.605020 321.136605 26.265083
AZ FRD 33.494700 -116.602200 128.123847 323.833088 30.112636
AZ LVA2 33.351600 -116.561500 128.259156 323.811304 30.184534
IU TEIG 20.226300 -88.276300 148.896661 359.867912 0.126272
AT CRAG 55.468940 -133.122970 103.867691 314.560919 24.346297
X6 EW15 -26.744400 -68.162900 155.461425 126.652778 226.895995
X6 NS05 -26.512500 -67.403400 155.045396 125.042385 228.296645
CI VTV 34.560650 -117.329600 126.909251 323.534614 29.933279
JP JHJ2 33.115300 139.813800 49.197959 254.822035 55.491869
ZE BARE 12.644300 40.355600 50.366086 86.167800 277.418480
ER NKB -77.521976 167.147465 97.449081 286.544228 167.783548
AZ SOL 32.841000 -117.248000 128.323368 322.837459 31.156475
CI MPM 36.057990 -117.489010 125.627018 324.006975 28.973045
US KVTX 27.545900 -97.892900 140.484547 345.106789 13.428990
CI USC 34.019190 -118.286310 126.862382 322.284368 31.125200
AF HARE -17.704000 31.009000 66.495974 69.288023 245.194818
TA Q12A 39.040000 -114.829900 124.341127 327.990785 24.823656
AU MORW -29.067900 116.040300 46.194935 325.978410 150.104474
CI SCZ2 33.995430 -119.635100 126.184610 320.875378 32.231274
CI CWC 36.439880 -118.080160 125.037216 323.545085 29.168601
TA W26A 35.089100 -103.765600 131.792864 339.472338 17.009540
ZV XATI 36.451700 101.561200 26.905400 201.626120 17.593033
G FDF 14.734971 -61.146311 143.001717 47.439755 313.481184
US JCT 30.479400 -99.802200 137.215380 343.264430 14.651840
LI LTH 46.461700 -119.417680 116.290216 325.580054 23.405086
X6 NS14 -27.443700 -67.694200 154.708854 127.098565 226.167803
NR NE74 28.007510 -114.013800 133.857377 323.932595 31.987731
IU KONO 59.649100 9.598200 76.668942 91.013791 328.949472
X4 GS09 32.869500 106.458700 25.672944 215.061503 29.462159
CI SBC 34.441700 -119.713300 125.798103 320.997001 31.947878
CU TGUH 14.057000 -87.273000 155.020164 2.129532 357.895843
TA E08A 46.491100 -119.059500 116.405092 325.947535 23.159447
ZL CHUC -31.067400 -67.284600 152.129782 131.996041 220.456776
YT PECA -85.612400 -68.552500 104.977384 160.011873 181.531168
NR NE84 24.913540 -111.545160 137.652540 325.045301 31.970666
NR NE72 30.848430 -116.058570 130.519514 323.149750 31.655557
G PAF -49.351000 70.210708 62.999273 23.955829 195.657344
CI SCI2 32.979900 -118.546970 127.543883 321.530867 32.138984
CI MUR 33.599990 -117.195430 127.744933 323.245995 30.536755
CI DJJ 34.106180 -118.455050 126.707966 322.147259 31.196746
ZL MONA -30.938900 -68.492800 152.977254 133.791129 219.131509
II PALK 7.272800 80.702200 11.554151 70.771420 252.533335
PS SYO -69.006700 39.585000 87.652668 51.027105 196.527735
IU TRQA -38.056800 -61.978700 144.197067 132.524178 216.280082
BL BB15B -21.041330 -48.530830 140.782948 98.751586 250.022249
TA Y12C 33.750300 -114.523800 128.909217 326.218106 28.119526
US BOZ 45.596970 -111.629670 119.787275 333.409232 18.632866
TA S22A 37.746100 -106.829300 128.409594 336.574175 18.696067
CI SHO 35.899530 -116.275300 126.325936 325.230361 28.098570
ZL CLAR -32.119600 -68.984900 152.441697 136.223619 216.676281
US CBKS 38.814000 -99.737400 129.220681 345.427686 11.531852
US ECSD 43.733700 -96.614100 124.920321 349.977048 7.369892
ZE SILE 12.407000 41.187900 49.570311 86.104745 277.039068
JP JOW 26.836000 128.272500 37.819090 252.363932 60.065252
X4 GS11 33.911200 105.968500 26.305368 212.902817 27.360418
MN TUE 46.472230 9.347320 76.971435 87.690213 315.409235
CU MTDJ 18.226050 -77.534540 149.064855 20.423891 340.265531
CI VES 35.840890 -119.084690 125.023465 322.252974 30.395482
IU ANMO 34.945910 -106.457200 131.089730 336.100881 19.789131
CN SCHQ 54.832400 -66.833200 111.930056 22.604398 346.940617
AU ARMA -30.418300 151.629300 70.714802 295.795869 127.685633
CI SLA 35.890950 -117.283320 125.859882 324.154369 28.927266
IU RAR -21.212500 -159.773300 111.057713 273.839817 108.617035
X6 BB13 -27.641300 -66.598000 153.808286 125.722508 227.134401
ZE FINE 12.068100 40.316000 50.445422 85.689372 276.679619
US HAWA 46.392500 -119.532700 116.302217 325.445786 23.521393
TA R11A 38.348900 -115.585400 124.604819 326.929206 25.872929
ZL SECA -31.271100 -68.799100 152.934141 134.768170 218.209391
ZL NUEV -31.036800 -69.525000 153.538385 135.689978 217.595672
IU GRFO 49.690900 11.220300 75.647551 89.865150 318.693096
ZL PATO -31.896500 -69.692300 153.015933 137.146706 216.057515
NR NE83 24.730880 -107.739330 139.669582 329.815998 27.731982
AF GRM -33.313000 26.508000 76.131787 66.875541 231.578858
LB BMN 40.431400 -117.220990 122.171744 325.951787 25.761688
IU YAK 62.031000 129.680500 57.868806 225.453955 19.955180
X4 D01 34.157800 95.831600 23.417003 190.030267 8.448998
IU BILL 68.065300 166.453100 74.159337 259.909579 22.062556
ZL LLAN -30.394900 -66.528000 152.076626 129.853709 222.448563
X4 GS13 35.636200 105.452800 27.550949 210.125006 24.574456
NR NE82 26.915660 -109.230840 137.111487 329.107697 27.810451
AU CMSA -31.537500 145.691600 66.732163 300.165995 131.313060
GE SUW 54.012501 23.180799 68.673981 100.902187 323.920541
TA O19A 40.298200 -109.123600 125.351711 334.702587 19.412640
ZV WGTN 36.109800 101.977800 26.716566 202.744239 18.569774
IU YSS 46.958700 142.760400 55.884027 247.225993 39.943904
AK BPAW 64.099700 -150.987300 91.532895 299.235774 22.906622
US EGMT 48.024000 -109.754700 118.143888 335.974343 16.130687
CN INK 68.306500 -133.525400 94.602053 315.614222 15.312188
GE BOAB 12.449300 -85.665901 156.503336 6.143236 353.890064
II JTS 10.290800 -84.952500 158.543673 8.574341 351.407383
ZV GUNA 35.583500 101.088800 25.959006 201.268525 17.503906
US EGAK 64.777400 -141.158100 94.694117 308.252557 19.982420
ZV TODE 35.260500 100.544700 25.499925 200.328623 16.810517
ZE TRUE 12.484100 40.316100 50.415443 86.029987 277.215384
TA 116A 32.561800 -111.704200 131.178669 328.890942 26.352542
AZ SMER 33.457700 -117.170800 127.870939 323.207004 30.623038
AF EKNA 4.234000 9.328000 81.906667 79.556636 272.800885
X6 NS15 -27.479600 -67.603300 154.622809 127.014160 226.214897
IU AFI -13.909300 -171.777300 98.836676 279.090645 102.498593
CI LGU 34.108190 -119.065870 126.393156 321.513189 31.689121
LD CPNY 40.791100 -73.960200 126.746895 17.435565 346.623210
X6 NS17 -27.707900 -67.624700 154.500315 127.428498 225.766211
US NATX 31.759800 -94.661000 136.962278 350.778159 7.983948
YT HOWD -77.528600 -86.769400 113.352234 178.465323 180.338556
KR ANVS 42.780000 77.660000 34.042464 154.606224 341.274366
ZL LEON -31.801600 -69.324100 152.870194 136.382862 216.699221
ZL BOZA -31.751100 -68.435100 152.376257 134.809641 217.947699
LD PAL 41.005600 -73.907900 126.530642 17.450492 346.655885
AK SAW 61.807000 -148.331800 93.740851 301.544419 24.274419
KN UCH 42.227500 74.513400 34.653509 149.097247 337.177386
XD PSP02 -89.998000 81.777000 100.829044 10.017135 180.000355
TA W25A 35.217700 -104.460600 131.469485 338.646592 17.654839
CI MWC 34.223620 -118.058320 126.815979 322.615633 30.784034
TA E12A 46.415100 -115.570500 117.757004 329.481932 20.926198
CI FMP 33.712640 -118.293810 127.100215 322.136819 31.364886
CN WHY 60.659700 -134.880600 99.577096 313.690377 21.207392
ZV GHYD 36.212200 100.100300 26.274225 198.713063 15.303078
US AMTX 34.883700 -101.680800 132.550486 342.049511 14.936519
ZL CATA -32.274200 -67.188500 151.252849 133.474949 218.714566
US SCIA 41.906900 -93.215300 127.078251 353.871488 4.648092
ZL USPA -32.224000 -69.387800 152.600659 137.048620 215.985826
ZE DAME 11.686800 40.962500 49.843092 85.466466 276.123041
CI IRM 34.157380 -115.145130 128.283619 325.712625 28.375048
ZL CORT -29.959600 -69.639900 154.368237 134.347762 219.159174
ZL SOMB -31.917200 -69.021800 152.608916 136.019253 216.929523
US MCWV 39.658100 -79.845600 128.932632 10.500535 351.773914
CU GRTK 21.511490 -71.132700 143.575750 28.720837 332.903101
ZL CASP -31.207000 -69.628500 153.478306 136.105759 217.189591
IU RSSD 44.121200 -104.035900 123.220988 341.434524 13.482173
AZ CPE 32.888900 -117.105100 128.357765 323.012704 30.998130
X6 EW09 -26.684100 -67.184100 154.786395 125.002492 228.232181
IU SSPA 40.635800 -77.887600 127.673991 12.751464 350.164418
X4 F15 31.874700 93.783700 20.927470 185.483051 4.744476
NU MGAN 12.146830 -86.247170 156.857130 4.800901 355.219608
AU NIUE -19.076300 -169.927200 101.346346 277.685787 107.415458
US COWI 46.100300 -89.136900 123.081754 358.915128 0.767394
TA Y24A 33.925700 -105.436100 132.359294 337.003026 19.297912
AF HVD -30.605000 25.497000 75.892159 68.110341 234.492395
TA P16A 39.609200 -111.659500 125.086116 331.647998 21.906590
ZL NIKI -31.577000 -67.870200 152.152092 133.642877 218.933951
CU SDDR 18.982100 -71.287800 145.840183 30.221007 330.994703
TA W27A 35.063700 -103.062700 132.014703 340.347158 16.299337
UW OPC 48.100090 -123.412910 113.364210 322.084617 24.752835
ZV SRLN 34.483300 102.137900 25.281434 204.413923 20.324661
AT MID 59.427800 -146.338800 95.845723 303.163312 25.765354
X4 GS10 33.535700 106.906200 26.432342 215.152810 29.290989
NA SMRT 18.050500 -63.074599 141.964983 42.166821 319.443327
X4 D04 35.086200 97.910600 24.687128 194.524661 12.077213
CN YKW3 62.561600 -114.609900 103.803881 333.349901 12.183505
ZL DOCA -30.949200 -69.082700 153.332928 134.804087 218.333773
II SACV 14.970200 -23.608500 111.105056 71.692588 290.894479
AK CHUM 63.882200 -152.317200 91.123567 298.031643 23.377888
X6 BB12 -27.513100 -67.124500 154.261570 126.318349 226.742089
AF WIN -22.566700 17.100000 80.426109 73.968457 244.727663
CI NEE2 34.767590 -114.618810 128.020494 326.554402 27.489051
NM PVMO 36.413700 -89.699700 132.741822 358.018659 1.625624
TA X27A 34.646900 -103.097400 132.396472 340.177891 16.523396
X4 D25 31.994500 96.511700 21.414536 192.793956 11.036930
X4 H05 35.660500 98.407900 25.345520 195.337625 12.656724
AT SDPT 55.349300 -160.476600 90.879523 290.839367 32.845737
CI DAN 34.637450 -115.381150 127.778017 325.663402 28.237679
US LRAL 33.034800 -86.997800 136.118658 1.695781 358.550829
CI BBR 34.262300 -116.920750 127.349273 323.837675 29.813274
ZL ABRA -31.499000 -66.238300 151.173441 130.952872 221.026299
II ALE 82.503300 -62.350000 85.859247 25.409998 356.720810
X6 NS16 -27.568600 -67.613400 154.576470 127.178975 226.037281
ZV DALU 33.579800 103.619800 25.022090 208.445194 23.862339
X4 GS05 34.651500 103.542500 25.937541 207.235193 22.569812
CI LRL 35.479540 -117.682120 125.999915 323.560312 29.547182
ZL CALI -31.283100 -69.419500 153.299314 135.846723 217.358607
ZV TANK 33.404600 102.477600 24.428966 206.146830 22.025645
JP CBIJ 27.095700 142.184500 49.973919 261.377000 63.765719
CI SDD 33.552590 -117.661710 127.548323 322.729015 30.963363
X4 H01 36.209300 96.385000 25.511898 190.526850 8.644183
X6 BB19 -26.306300 -67.061500 154.909541 124.154601 229.109754
US CNNC 35.239300 -77.890100 132.917938 13.779894 348.559944
X6 BB24 -27.832700 -68.097700 154.754698 128.397574 224.935966
LD FOR 40.860300 -73.885200 126.663890 17.509179 346.581691
IU FURI 8.895200 38.679800 52.360142 83.014241 272.861720
X4 GS08 33.475500 104.997600 25.506464 211.429719 26.321370
KZ KNDC 43.217200 76.965800 34.657411 153.740727 340.799451
IU KIP 21.420000 -158.011200 104.385763 288.146808 64.329041
AF SEK -28.323000 27.625000 73.313275 67.447727 235.949760
G DRV -66.664908 140.002069 84.971509 312.627301 162.683661
CI SVD 34.106470 -117.098220 127.387485 323.578825 30.077024
NR NE73 30.065100 -115.348470 131.512193 323.531880 31.621608
X6 NS07 -26.667700 -67.550500 155.063607 125.543208 227.816160
CI DGR 33.650010 -117.009470 127.797515 323.467296 30.342473
AZ RDM 33.630000 -116.847800 127.893710 323.631164 30.220666
AZ WMC 33.573600 -116.674700 128.024571 323.791167 30.115685
AU FORT -30.779000 128.059000 54.211529 314.194919 141.107296
MY KUM 5.290200 100.649200 10.418781 303.199029 121.944970
AZ HWB 33.026200 -116.959600 128.321642 323.232824 30.769646
NA SABA 17.620500 -63.242600 142.389485 42.332325 319.168381
X4 GS04 35.054700 104.570500 26.690564 208.947811 23.825202
G MBO 14.392024 -16.955467 105.111932 74.187814 288.322697
CC SWFL 46.188670 -122.202030 115.382387 322.744472 25.311721
UW HOOD 45.322260 -121.650930 116.305683 323.036686 25.549676
LD SDMD 39.410200 -76.840300 128.676315 14.250292 348.816819
AK FIB 61.165600 -150.177500 93.308667 299.865082 25.278779
US HLID 43.562500 -114.413800 120.632277 329.898040 21.758861
X6 EW12 -26.685100 -67.773600 155.215594 125.925357 227.504870
PM PESTR 38.867199 -7.590199 90.423098 75.510755 309.761259
X4 D12 33.408800 97.276700 22.936032 193.946871 11.835629
ZE BREE 12.170400 41.188300 49.586320 85.905100 276.730434
AU TOO -37.571400 145.490600 69.717146 302.366482 136.951328
ZL ARRO -30.407600 -69.245400 153.811718 134.314537 218.975067
BL BEB4B -21.082000 -48.507330 140.755066 98.788496 249.963847
TA T25A 37.138800 -104.410800 129.694539 339.288302 16.706520
GT PLCA -40.732770 -70.550830 146.417297 147.730773 204.368023
ZL LAJA -31.328700 -68.475600 152.696426 134.303488 218.543873
AU MEEK -26.637600 118.613500 45.587053 321.607818 145.548149
XD PSP03 -89.929000 144.361000 100.787667 307.443742 179.942400
ZL CHIL -31.905800 -68.775100 152.470776 135.586271 217.271642
X4 C09 33.861200 92.250900 22.831536 181.157174 0.979577
CI ARV 35.126900 -118.830090 125.713884 322.209655 30.727712
IU PMSA -64.774400 -64.048900 123.591807 151.238869 192.087644
US WMOK 34.737900 -98.780700 133.351815 345.769529 11.885014
GE VSU 58.462000 26.734700 67.772350 105.780846 329.078920
AZ BZN 33.491500 -116.667000 128.094436 323.761945 30.170297
ZL CONE -31.123800 -68.074000 152.589660 133.354312 219.380671
X6 NS18 -27.900800 -67.629000 154.386062 127.753334 225.407676
AU MCQ -54.498600 158.956100 86.060231 294.771101 147.440015
CI DEC 34.253530 -118.333830 126.653287 322.340309 30.986361
X4 F04 32.331400 95.973100 21.648228 191.197596 9.628843
X6 BB11 -27.112500 -66.943600 154.364802 125.367098 227.707178
AK GAMB 63.775800 -171.703500 83.091921 280.760115 26.314281
IU RCBR -5.827400 -35.901400 128.194391 80.673402 271.230676
NM UTMT 36.342100 -88.865400 132.830039 359.124018 0.719411
ZL BARR -31.649500 -69.415900 153.033955 136.337729 216.804446
AU MAW -67.604000 62.871000 81.077999 28.773716 190.795681
IU TARA 1.354900 172.922900 81.120253 280.826346 90.298709
AZ KNW 33.714100 -116.711900 127.893144 323.815117 30.042825
AZ CRY 33.565400 -116.737300 128.000263 323.720203 30.175048
TA H13A 44.564200 -114.254500 119.821490 330.352017 21.070061
NM FVM 37.981200 -90.427300 131.154126 357.124637 2.310666
ZE MILE 11.423800 40.765000 50.057432 85.221231 275.802756
TA L11A 42.166900 -115.754100 121.319535 328.061759 23.572486
LB TPH 38.075000 -117.222500 124.110647 325.091446 27.345942
US BW06 42.766700 -109.558300 122.981668 334.918433 18.506652
ZE AFME 13.204000 40.858500 49.841686 86.718827 278.103562
KN KZA 42.077800 75.249600 34.247841 150.169369 337.878458
LD NPNY 41.754600 -74.143500 125.868624 17.013378 347.136920
II KIV 43.955300 42.686300 53.521759 112.492758 317.277716
CI BC3 33.655150 -115.453660 128.550564 325.151806 29.004336
ZV CHAL 32.445700 102.032100 23.405280 206.095416 22.234334
IU MIDW 28.215600 -177.369800 85.683905 280.140963 62.131462
US ERPA 42.117500 -79.989100 126.534892 9.992848 352.456380
NM PBMO 36.778500 -90.429700 132.352914 357.068165 2.393983
IU TIXI 71.634100 128.866700 64.680988 220.940747 12.175199
GE SUMG 72.576300 -38.453900 90.571647 48.482632 346.760270
IU CHTO 18.814100 98.944300 10.448216 222.432635 40.590210
IU LSZ -15.277900 28.188200 68.235710 71.411115 248.648554
US MIAR 34.545400 -93.576500 134.343504 352.679485 6.142298
CI MPP 34.888480 -119.813620 125.399492 321.092996 31.683403
PS PATS 6.836700 158.315200 65.810556 278.935245 87.344099
NN WCN 39.310400 -119.759000 121.946727 322.939380 28.392404
CI MLAC 37.630190 -118.836050 123.722908 323.240569 28.899724
CI CIA 33.401898 -118.415021 127.282153 321.866513 31.703085
